…
Another useful function is `clean_names()`. I use `clean_names()` the
first time I import raw data to remove capital letters and illegal
characters.

``` r
file_nyc_data <- 
    "https://data.cityofnewyork.us/api/views/kku6-nxdu/rows.csv"

# Reading data without clean_names()
read_csv(file_nyc_data) %>% select(1:4)
```

    ## # A tibble: 236 x 4
    ##    `JURISDICTION NAME` `COUNT PARTICIPANTS` `COUNT FEMALE` `PERCENT FEMALE`
    ##                  <dbl>                <dbl>          <dbl>            <dbl>
    ##  1               10001                   44             22             0.5 
    ##  2               10002                   35             19             0.54
    ##  3               10003                    1              1             1   
    ##  4               10004                    0              0             0   
    ##  5               10005                    2              2             1   
    ##  6               10006                    6              2             0.33
    ##  7               10007                    1              0             0   
    ##  8               10009                    2              0             0   
    ##  9               10010                    0              0             0   
    ## 10               10011                    3              2             0.67
    ## # … with 226 more rows

``` r
# Reading data with clean_names()
read_csv(file_nyc_data) %>% select(1:4) %>% clean_names()
```

    ## # A tibble: 236 x 4
    ##    jurisdiction_name count_participants count_female percent_female
    ##                <dbl>              <dbl>        <dbl>          <dbl>
    ##  1             10001                 44           22           0.5 
    ##  2             10002                 35           19           0.54
    ##  3             10003                  1            1           1   
    ##  4             10004                  0            0           0   
    ##  5             10005                  2            2           1   
    ##  6             10006                  6            2           0.33
    ##  7             10007                  1            0           0   
    ##  8             10009                  2            0           0   
    ##  9             10010                  0            0           0   
    ## 10             10011                  3            2           0.67
    ## # … with 226 more rows
